[
  {
    "name": "master",
    "push_access_levels": [
      {
        "access_level": 40,
        "access_level_description": "Maintainers",
        "user_id": null,
        "group_id": null
      },
      {
        "access_level": 40,
        "access_level_description": "Atlas Nightlybuild",
        "user_id": 5924,
        "group_id": null
      }
    ],
    "merge_access_levels": [
      {
        "access_level": 40,
        "access_level_description": "atlas-sw-coordinators",
        "user_id": null,
        "group_id": 8393
      },
      {
        "access_level": 40,
        "access_level_description": "Maintainers",
        "user_id": null,
        "group_id": null
      },
      {
        "access_level": 40,
        "access_level_description": "atlas-release-coordinators",
        "user_id": null,
        "group_id": 8547
      },
      {
        "access_level": 40,
        "access_level_description": "atlas-sw-experts",
        "user_id": null,
        "group_id": 8575
      }
    ],
    "unprotect_access_levels": [

    ]
  },
  {
    "name": "multithreading",
    "push_access_levels": [
      {
        "access_level": 40,
        "access_level_description": "Maintainers",
        "user_id": null,
        "group_id": null
      },
      {
        "access_level": 40,
        "access_level_description": "Charles Leggett",
        "user_id": 908,
        "group_id": null
      }
    ],
    "merge_access_levels": [
      {
        "access_level": 40,
        "access_level_description": "atlas-sw-experts",
        "user_id": null,
        "group_id": 8575
      },
      {
        "access_level": 40,
        "access_level_description": "atlas-release-coordinators",
        "user_id": null,
        "group_id": 8547
      },
      {
        "access_level": 40,
        "access_level_description": "atlas-sw-coordinators",
        "user_id": null,
        "group_id": 8393
      },
      {
        "access_level": 40,
        "access_level_description": "Maintainers",
        "user_id": null,
        "group_id": null
      }
    ],
    "unprotect_access_levels": [

    ]
  },
  {
    "name": "21.0*",
    "push_access_levels": [
      {
        "access_level": 40,
        "access_level_description": "Rohin Thampilali Narayan",
        "user_id": 1183,
        "group_id": null
      },
      {
        "access_level": 40,
        "access_level_description": "John Kenneth Anders",
        "user_id": 6335,
        "group_id": null
      },
      {
        "access_level": 40,
        "access_level_description": "Maintainers",
        "user_id": null,
        "group_id": null
      },
      {
        "access_level": 40,
        "access_level_description": "Atlas Nightlybuild",
        "user_id": 5924,
        "group_id": null
      },
      {
        "access_level": 40,
        "access_level_description": "James Beacham",
        "user_id": 6612,
        "group_id": null
      }
    ],
    "merge_access_levels": [
      {
        "access_level": 40,
        "access_level_description": "Rohin Thampilali Narayan",
        "user_id": 1183,
        "group_id": null
      },
      {
        "access_level": 40,
        "access_level_description": "John Kenneth Anders",
        "user_id": 6335,
        "group_id": null
      },
      {
        "access_level": 40,
        "access_level_description": "atlas-sw-experts",
        "user_id": null,
        "group_id": 8575
      },
      {
        "access_level": 40,
        "access_level_description": "atlas-release-coordinators",
        "user_id": null,
        "group_id": 8547
      },
      {
        "access_level": 40,
        "access_level_description": "atlas-sw-coordinators",
        "user_id": null,
        "group_id": 8393
      },
      {
        "access_level": 40,
        "access_level_description": "Maintainers",
        "user_id": null,
        "group_id": null
      }
    ],
    "unprotect_access_levels": [

    ]
  },
  {
    "name": "20.*",
    "push_access_levels": [
      {
        "access_level": 40,
        "access_level_description": "Maintainers",
        "user_id": null,
        "group_id": null
      }
    ],
    "merge_access_levels": [
      {
        "access_level": 40,
        "access_level_description": "Maintainers",
        "user_id": null,
        "group_id": null
      }
    ],
    "unprotect_access_levels": [

    ]
  },
  {
    "name": "19.*",
    "push_access_levels": [
      {
        "access_level": 40,
        "access_level_description": "Maintainers",
        "user_id": null,
        "group_id": null
      }
    ],
    "merge_access_levels": [
      {
        "access_level": 40,
        "access_level_description": "Maintainers",
        "user_id": null,
        "group_id": null
      }
    ],
    "unprotect_access_levels": [

    ]
  },
  {
    "name": "21.1*",
    "push_access_levels": [
      {
        "access_level": 40,
        "access_level_description": "Maintainers",
        "user_id": null,
        "group_id": null
      },
      {
        "access_level": 40,
        "access_level_description": "Atlas Nightlybuild",
        "user_id": 5924,
        "group_id": null
      },
      {
        "access_level": 40,
        "access_level_description": "Tim Martin",
        "user_id": 633,
        "group_id": null
      },
      {
        "access_level": 40,
        "access_level_description": "Oleg Kuprash",
        "user_id": 5234,
        "group_id": null
      },
      {
        "access_level": 40,
        "access_level_description": "Stewart Martin-Haugh",
        "user_id": 776,
        "group_id": null
      }
    ],
    "merge_access_levels": [
      {
        "access_level": 40,
        "access_level_description": "Maintainers",
        "user_id": null,
        "group_id": null
      },
      {
        "access_level": 40,
        "access_level_description": "atlas-sw-experts",
        "user_id": null,
        "group_id": 8575
      },
      {
        "access_level": 40,
        "access_level_description": "atlas-release-coordinators",
        "user_id": null,
        "group_id": 8547
      },
      {
        "access_level": 40,
        "access_level_description": "atlas-sw-coordinators",
        "user_id": null,
        "group_id": 8393
      },
      {
        "access_level": 40,
        "access_level_description": "atlas-trigger-p1-rc",
        "user_id": null,
        "group_id": 9660
      }
    ],
    "unprotect_access_levels": [

    ]
  },
  {
    "name": "21.2*",
    "push_access_levels": [
      {
        "access_level": 40,
        "access_level_description": "Oana Vickey Boeriu",
        "user_id": 3301,
        "group_id": null
      },
      {
        "access_level": 40,
        "access_level_description": "Eirik Gramstad",
        "user_id": 2311,
        "group_id": null
      },
      {
        "access_level": 40,
        "access_level_description": "Andrew Mehta",
        "user_id": 6543,
        "group_id": null
      },
      {
        "access_level": 40,
        "access_level_description": "Maintainers",
        "user_id": null,
        "group_id": null
      },
      {
        "access_level": 40,
        "access_level_description": "Attila Krasznahorkay",
        "user_id": 1413,
        "group_id": null
      },
      {
        "access_level": 40,
        "access_level_description": "James Catmore",
        "user_id": 2955,
        "group_id": null
      }
    ],
    "merge_access_levels": [
      {
        "access_level": 40,
        "access_level_description": "Oana Vickey Boeriu",
        "user_id": 3301,
        "group_id": null
      },
      {
        "access_level": 40,
        "access_level_description": "Eirik Gramstad",
        "user_id": 2311,
        "group_id": null
      },
      {
        "access_level": 40,
        "access_level_description": "Maintainers",
        "user_id": null,
        "group_id": null
      },
      {
        "access_level": 40,
        "access_level_description": "atlas-sw-experts",
        "user_id": null,
        "group_id": 8575
      },
      {
        "access_level": 40,
        "access_level_description": "atlas-release-coordinators",
        "user_id": null,
        "group_id": 8547
      },
      {
        "access_level": 40,
        "access_level_description": "atlas-sw-coordinators",
        "user_id": null,
        "group_id": 8393
      }
    ],
    "unprotect_access_levels": [

    ]
  },
  {
    "name": "21.3*",
    "push_access_levels": [
      {
        "access_level": 40,
        "access_level_description": "Maintainers",
        "user_id": null,
        "group_id": null
      },
      {
        "access_level": 40,
        "access_level_description": "John Derek Chapman",
        "user_id": 3190,
        "group_id": null
      },
      {
        "access_level": 40,
        "access_level_description": "Elmar Ritsch",
        "user_id": 666,
        "group_id": null
      },
      {
        "access_level": 40,
        "access_level_description": "Andrew Haas",
        "user_id": 7335,
        "group_id": null
      }
    ],
    "merge_access_levels": [
      {
        "access_level": 40,
        "access_level_description": "Maintainers",
        "user_id": null,
        "group_id": null
      },
      {
        "access_level": 40,
        "access_level_description": "atlas-sw-experts",
        "user_id": null,
        "group_id": 8575
      },
      {
        "access_level": 40,
        "access_level_description": "atlas-release-coordinators",
        "user_id": null,
        "group_id": 8547
      },
      {
        "access_level": 40,
        "access_level_description": "atlas-sw-coordinators",
        "user_id": null,
        "group_id": 8393
      }
    ],
    "unprotect_access_levels": [

    ]
  },
  {
    "name": "21.0-TrigMC",
    "push_access_levels": [
      {
        "access_level": 40,
        "access_level_description": "Maintainers",
        "user_id": null,
        "group_id": null
      }
    ],
    "merge_access_levels": [
      {
        "access_level": 40,
        "access_level_description": "atlas-trigger-p1-rc",
        "user_id": null,
        "group_id": 9660
      }
    ],
    "unprotect_access_levels": [

    ]
  },
  {
    "name": "21.9*",
    "push_access_levels": [
      {
        "access_level": 40,
        "access_level_description": "Maintainers",
        "user_id": null,
        "group_id": null
      }
    ],
    "merge_access_levels": [
      {
        "access_level": 40,
        "access_level_description": "Andreas Salzburger",
        "user_id": 1889,
        "group_id": null
      },
      {
        "access_level": 40,
        "access_level_description": "Swagato Banerjee",
        "user_id": 8222,
        "group_id": null
      },
      {
        "access_level": 40,
        "access_level_description": "atlas-sw-coordinators",
        "user_id": null,
        "group_id": 8393
      },
      {
        "access_level": 40,
        "access_level_description": "atlas-sw-experts",
        "user_id": null,
        "group_id": 8575
      },
      {
        "access_level": 40,
        "access_level_description": "atlas-release-coordinators",
        "user_id": null,
        "group_id": 8547
      },
      {
        "access_level": 40,
        "access_level_description": "Maintainers",
        "user_id": null,
        "group_id": null
      }
    ],
    "unprotect_access_levels": [

    ]
  },
  {
    "name": "21.6*",
    "push_access_levels": [
      {
        "access_level": 40,
        "access_level_description": "atlas-sw-experts",
        "user_id": null,
        "group_id": 8575
      },
      {
        "access_level": 40,
        "access_level_description": "Ewelina Maria Lobodzinska",
        "user_id": 3952,
        "group_id": null
      },
      {
        "access_level": 40,
        "access_level_description": "Chris Hays",
        "user_id": 8979,
        "group_id": null
      },
      {
        "access_level": 40,
        "access_level_description": "Maintainers",
        "user_id": null,
        "group_id": null
      }
    ],
    "merge_access_levels": [
      {
        "access_level": 40,
        "access_level_description": "atlas-sw-experts",
        "user_id": null,
        "group_id": 8575
      },
      {
        "access_level": 40,
        "access_level_description": "Ewelina Maria Lobodzinska",
        "user_id": 3952,
        "group_id": null
      },
      {
        "access_level": 40,
        "access_level_description": "Chris Hays",
        "user_id": 8979,
        "group_id": null
      },
      {
        "access_level": 40,
        "access_level_description": "Maintainers",
        "user_id": null,
        "group_id": null
      }
    ],
    "unprotect_access_levels": [

    ]
  },
  {
    "name": "LCG_dev3",
    "push_access_levels": [
      {
        "access_level": 40,
        "access_level_description": "Marcin Nowak",
        "user_id": 4516,
        "group_id": null
      },
      {
        "access_level": 40,
        "access_level_description": "Maintainers",
        "user_id": null,
        "group_id": null
      }
    ],
    "merge_access_levels": [
      {
        "access_level": 40,
        "access_level_description": "Marcin Nowak",
        "user_id": 4516,
        "group_id": null
      },
      {
        "access_level": 40,
        "access_level_description": "Maintainers",
        "user_id": null,
        "group_id": null
      }
    ],
    "unprotect_access_levels": [

    ]
  },
  {
    "name": "LCG_dev4",
    "push_access_levels": [
      {
        "access_level": 40,
        "access_level_description": "Marcin Nowak",
        "user_id": 4516,
        "group_id": null
      },
      {
        "access_level": 40,
        "access_level_description": "Maintainers",
        "user_id": null,
        "group_id": null
      }
    ],
    "merge_access_levels": [
      {
        "access_level": 40,
        "access_level_description": "Marcin Nowak",
        "user_id": 4516,
        "group_id": null
      },
      {
        "access_level": 40,
        "access_level_description": "Maintainers",
        "user_id": null,
        "group_id": null
      }
    ],
    "unprotect_access_levels": [

    ]
  }
]